%YAML 1.1
%TAG !u! tag:unity3d.com,2011:
--- !u!129 &1
PlayerSettings:
  m_ObjectHideFlags: 0
  serializedVersion: 7
  AndroidProfiler: 0
  defaultScreenOrientation: 0
  targetDevice: 2
  targetResolution: 0
  accelerometerFrequency: 60
  companyName: DefaultCompany
  productName: _2D v3
  defaultCursor: {fileID: 0}
  cursorHotspot: {x: 0, y: 0}
  m_ShowUnitySplashScreen: 1
  defaultScreenWidth: 1024
  defaultScreenHeight: 768
  defaultScreenWidthWeb: 960
  defaultScreenHeightWeb: 600
  m_RenderingPath: 1
  m_MobileRenderingPath: 1
  m_ActiveColorSpace: 0
  m_MTRendering: 1
  m_MobileMTRendering: 0
  m_Stereoscopic3D: 0
  iosShowActivityIndicatorOnLoading: -1
  androidShowActivityIndicatorOnLoading: -1
  iosAppInBackgroundBehavior: 0
  displayResolutionDialog: 1
  allowedAutorotateToPortrait: 1
  allowedAutorotateToPortraitUpsideDown: 1
  allowedAutorotateToLandscapeRight: 1
  allowedAutorotateToLandscapeLeft: 1
  useOSAutorotation: 1
  use32BitDisplayBuffer: 1
  disableDepthAndStencilBuffers: 0
  defaultIsFullScreen: 1
  defaultIsNativeResolution: 1
  runInBackground: 0
  captureSingleScreen: 0
  Override IPod Music: 0
  Prepare IOS For Recording: 0
  submitAnalytics: 1
  usePlayerLog: 1
  bakeCollisionMeshes: 0
  forceSingleInstance: 0
  resizableWindow: 0
  useMacAppStoreValidation: 0
  gpuSkinning: 1
  xboxPIXTextureCapture: 0
  xboxEnableAvatar: 0
  xboxEnableKinect: 0
  xboxEnableKinectAutoTracking: 0
  xboxEnableFitness: 0
  visibleInBackground: 0
  macFullscreenMode: 2
  d3d9FullscreenMode: 1
  d3d11FullscreenMode: 1
  xboxSpeechDB: 0
  xboxEnableHeadOrientation: 0
  xboxEnableGuest: 0
  xboxOneResolution: 0
  ps3SplashScreen: {fileID: 0}
  videoMemoryForVertexBuffers: 0
  psp2PowerMode: 0
  psp2AcquireBGM: 1
  m_SupportedAspectRatios:
    4:3: 1
    5:4: 1
    16:10: 1
    16:9: 1
    Others: 1
  bundleIdentifier: com.Company.ProductName
  bundleVersion: 1.0
  preloadedAssets: []
  metroEnableIndependentInputSource: 0
  metroEnableLowLatencyPresentationAPI: 0
  xboxOneDisableKinectGpuReservation: 0
  virtualRealitySupported: 0
  productGUID: 3a8984573b6d44decadf1ac29eacc6ec
  AndroidBundleVersionCode: 1
  AndroidMinSdkVersion: 9
  AndroidPreferredInstallLocation: 1
  aotOptions: 
  apiCompatibilityLevel: 2
  iPhoneStrippingLevel: 0
  iPhoneScriptCallOptimization: 0
  ForceInternetPermission: 0
  ForceSDCardPermission: 0
  CreateWallpaper: 0
  APKExpansionFiles: 0
  preloadShaders: 0
  StripUnusedMeshComponents: 0
  iPhoneSdkVersion: 988
  iPhoneTargetOSVersion: 22
  uIPrerenderedIcon: 0
  uIRequiresPersistentWiFi: 0
  uIStatusBarHidden: 1
  uIExitOnSuspend: 0
  uIStatusBarStyle: 0
  iPhoneSplashScreen: {fileID: 0}
  iPhoneHighResSplashScreen: {fileID: 0}
  iPhoneTallHighResSplashScreen: {fileID: 0}
  iPhone47inSplashScreen: {fileID: 0}
  iPhone55inPortraitSplashScreen: {fileID: 0}
  iPhone55inLandscapeSplashScreen: {fileID: 0}
  iPadPortraitSplashScreen: {fileID: 0}
  iPadHighResPortraitSplashScreen: {fileID: 0}
  iPadLandscapeSplashScreen: {fileID: 0}
  iPadHighResLandscapeSplashScreen: {fileID: 0}
  iOSLaunchScreenType: 0
  iOSLaunchScreenPortrait: {fileID: 0}
  iOSLaunchScreenLandscape: {fileID: 0}
  iOSLaunchScreenBackgroundColor:
    serializedVersion: 2
    rgba: 1851703024
  iOSLaunchScreenFillPct: 100
  iOSLaunchScreenSize: 100
  iOSLaunchScreenCustomXibPath: 
  AndroidTargetDevice: 0
  AndroidSplashScreenScale: 0
  androidSplashScreen: {fileID: 0}
  AndroidKeystoreName: 
  AndroidKeyaliasName: 
  AndroidTVCompatibility: 1
  AndroidIsGame: 1
  androidEnableBanner: 1
  m_AndroidBanners:
  - width: 320
    height: 180
    banner: {fileID: 0}
  androidGamepadSupportLevel: 0
  resolutionDialogBanner: {fileID: 0}
  m_BuildTargetIcons:
  - m_BuildTarget: 
    m_Icons:
    - m_Icon: {fileID: 0}
      m_Size: 128
  m_BuildTargetBatching: []
  m_BuildTargetGraphicsAPIs:
  - m_BuildTarget: WindowsStandaloneSupport
    m_APIs: 01000000
    m_Automatic: 0
  - m_BuildTarget: AndroidPlayer
    m_APIs: 08000000
    m_Automatic: 0
  webPlayerTemplate: APPLICATION:Default
  m_TemplateCustomTags: {}
  actionOnDotNetUnhandledException: 1
  enableInternalProfiler: 0
  logObjCUncaughtExceptions: 1
  enableCrashReportAPI: 0
  locationUsageDescription: 
  XboxTitleId: 
  XboxImageXexPath: 
  XboxSpaPath: 
  XboxGenerateSpa: 0
  XboxDeployKinectResources: 0
  XboxSplashScreen: {fileID: 0}
  xboxEnableSpeech: 0
  xboxAdditionalTitleMemorySize: 0
  xboxDeployKinectHeadOrientation: 0
  xboxDeployKinectHeadPosition: 0
  ps3TitleConfigPath: 
  ps3DLCConfigPath: 
  ps3ThumbnailPath: 
  ps3BackgroundPath: 
  ps3SoundPath: 
  ps3NPAgeRating: 12
  ps3TrophyCommId: 
  ps3NpCommunicationPassphrase: 
  ps3TrophyPackagePath: 
  ps3BootCheckMaxSaveGameSizeKB: 128
  ps3TrophyCommSig: 
  ps3SaveGameSlots: 1
  ps3TrialMode: 0
  ps3VideoMemoryForAudio: 0
  ps3EnableVerboseMemoryStats: 0
  ps3UseSPUForUmbra: 0
  ps3EnableMoveSupport: 1
  ps3DisableDolbyEncoding: 0
  ps4NPAgeRating: 12
  ps4NPTitleSecret: 
  ps4NPTrophyPackPath: 
  ps4ParentalLevel: 1
  ps4ContentID: ED1633-NPXX51362_00-0000000000000000
  ps4Category: 0
  ps4MasterVersion: 01.00
  ps4AppVersion: 01.00
  ps4AppType: 0
  ps4ParamSfxPath: 
  ps4VideoOutPixelFormat: 0
  ps4VideoOutResolution: 4
  ps4PronunciationXMLPath: 
  ps4PronunciationSIGPath: 
  ps4BackgroundImagePath: 
  ps4StartupImagePath: 
  ps4SaveDataImagePath: 
  ps4BGMPath: 
  ps4ShareFilePath: 
  ps4NPtitleDatPath: 
  ps4RemotePlayKeyAssignment: -1
  ps4EnterButtonAssignment: 1
  ps4ApplicationParam1: 0
  ps4ApplicationParam2: 0
  ps4ApplicationParam3: 0
  ps4ApplicationParam4: 0
  ps4GarlicHeapSize: 2048
  ps4Passcode: 1O8YFOGKjxRrJBdT3hVOfoaMeAjSWfch
  ps4pnSessions: 1
  ps4pnPresence: 1
  ps4pnFriends: 1
  ps4pnGameCustomData: 1
  playerPrefsSupport: 0
  monoEnv: 
  psp2Splashimage: {fileID: 0}
  psp2NPTrophyPackPath: 
  psp2NPSupportGBMorGJP: 0
  psp2NPAgeRating: 12
  psp2NPTitleDatPath: 
  psp2NPCommsID: 
  psp2NPCommunicationsID: 
  psp2NPCommsPassphrase: 
  psp2NPCommsSig: 
  psp2ParamSfxPath: 
  psp2ManualPath: 
  psp2LiveAreaGatePath: 
  psp2LiveAreaBackroundPath: 
  psp2LiveAreaPath: 
  psp2LiveAreaTrialPath: 
  psp2PatchChangeInfoPath: 
  psp2PatchOriginalPackage: 
  psp2PackagePassword: oZYFYZ5B6kzMCk8R6BEuZMrF6cI6NX8D
  psp2KeystoneFile: 
  psp2MemoryExpansionMode: 0
  psp2DRMType: 0
  psp2StorageType: 0
  psp2MediaCapacity: 0
  psp2DLCConfigPath: 
  psp2ThumbnailPath: 
  psp2BackgroundPath: 
  psp2SoundPath: 
  psp2TrophyCommId: 
  psp2TrophyPackagePath: 
  psp2PackagedResourcesPath: 
  psp2SaveDataQuota: 10240
  psp2ParentalLevel: 1
  psp2ShortTitle: Not Set
  psp2ContentID: IV0000-ABCD12345_00-0123456789ABCDEF
  psp2Category: 0
  psp2MasterVersion: 01.00
  psp2AppVersion: 01.00
  psp2TVBootMode: 0
  psp2EnterButtonAssignment: 2
  psp2TVDisableEmu: 0
  psp2AllowTwitterDialog: 1
  psp2Upgradable: 0
  psp2HealthWarning: 0
  psp2UseLibLocation: 0
  psp2InfoBarOnStartup: 0
  psp2InfoBarColor: 0
  psmSplashimage: {fileID: 0}
  spritePackerPolicy: DefaultPackerPolicy
  scriptingDefineSymbols: {}
  metroPackageName: _2D v3
  metroPackageLogo: 
  metroPackageLogo140: 
  metroPackageLogo180: 
  metroPackageLogo240: 
  metroPackageVersion: 
  metroCertificatePath: 
  metroCertificatePassword: 
  metroCertificateSubject: 
  metroCertificateIssuer: 
  metroCertificateNotAfter: 0000000000000000
  metroApplicationDescription: _2D v3
  metroStoreTileLogo80: 
  metroStoreTileLogo: 
  metroStoreTileLogo140: 
  metroStoreTileLogo180: 
  metroStoreTileWideLogo80: 
  metroStoreTileWideLogo: 
  metroStoreTileWideLogo140: 
  metroStoreTileWideLogo180: 
  metroStoreTileSmallLogo80: 
  metroStoreTileSmallLogo: 
  metroStoreTileSmallLogo140: 
  metroStoreTileSmallLogo180: 
  metroStoreSmallTile80: 
  metroStoreSmallTile: 
  metroStoreSmallTile140: 
  metroStoreSmallTile180: 
  metroStoreLargeTile80: 
  metroStoreLargeTile: 
  metroStoreLargeTile140: 
  metroStoreLargeTile180: 
  metroStoreSplashScreenImage: 
  metroStoreSplashScreenImage140: 
  metroStoreSplashScreenImage180: 
  metroPhoneAppIcon: 
  metroPhoneAppIcon140: 
  metroPhoneAppIcon240: 
  metroPhoneSmallTile: 
  metroPhoneSmallTile140: 
  metroPhoneSmallTile240: 
  metroPhoneMediumTile: 
  metroPhoneMediumTile140: 
  metroPhoneMediumTile240: 
  metroPhoneWideTile: 
  metroPhoneWideTile140: 
  metroPhoneWideTile240: 
  metroPhoneSplashScreenImage: 
  metroPhoneSplashScreenImage140: 
  metroPhoneSplashScreenImage240: 
  metroTileShortName: 
  metroCommandLineArgsFile: 
  metroTileShowName: 1
  metroMediumTileShowName: 0
  metroLargeTileShowName: 0
  metroWideTileShowName: 0
  metroDefaultTileSize: 1
  metroTileForegroundText: 1
  metroTileBackgroundColor: {r: 0, g: 0, b: 0, a: 1}
  metroSplashScreenBackgroundColor: {r: 0, g: 0, b: 0, a: 1}
  metroSplashScreenUseBackgroundColor: 0
  platformCapabilities: {}
  metroFTAName: 
  metroFTAFileTypes: []
  metroProtocolName: 
  metroCompilationOverrides: 1
  blackberryDeviceAddress: 
  blackberryDevicePassword: 
  blackberryTokenPath: 
  blackberryTokenExires: 
  blackberryTokenAuthor: 
  blackberryTokenAuthorId: 
  blackberryCskPassword: 
  blackberrySaveLogPath: 
  blackberrySharedPermissions: 0
  blackberryCameraPermissions: 0
  blackberryGPSPermissions: 0
  blackberryDeviceIDPermissions: 0
  blackberryMicrophonePermissions: 0
  blackberryGamepadSupport: 0
  blackberryBuildId: 0
  blackberryLandscapeSplashScreen: {fileID: 0}
  blackberryPortraitSplashScreen: {fileID: 0}
  blackberrySquareSplashScreen: {fileID: 0}
  tizenProductDescription: 
  tizenProductURL: 
  tizenSigningProfileName: 
  tizenGPSPermissions: 0
  tizenMicrophonePermissions: 0
  stvDeviceAddress: 
  stvProductDescription: 
  stvProductAuthor: 
  stvProductAuthorEmail: 
  stvProductLink: 
  stvProductCategory: 0
  XboxOneProductId: 
  XboxOneUpdateKey: 
  XboxOneSandboxId: 
  XboxOneContentId: 
  XboxOneTitleId: 
  XboxOneSCId: 
  XboxOneGameOsOverridePath: 
  XboxOnePackagingOverridePath: 
  XboxOneAppManifestOverridePath: 
  XboxOnePackageEncryption: 0
  XboxOnePackageUpdateGranularity: 2
  XboxOneDescription: 
  XboxOneIsContentPackage: 0
  XboxOneEnableGPUVariability: 0
  XboxOneSockets: {}
  XboxOneSplashScreen: {fileID: 0}
  XboxOneAllowedProductIds: []
  XboxOnePersistentLocalStorageSize: 0
  intPropertyNames:
  - Metro::ScriptingBackend
  - Standalone::ScriptingBackend
  - WP8::ScriptingBackend
  - WebGL::ScriptingBackend
  - WebGL::audioCompressionFormat
  - WebGL::exceptionSupport
  - WebGL::memorySize
  - iOS::Architecture
  - iOS::ScriptingBackend
  Metro::ScriptingBackend: 2
  Standalone::ScriptingBackend: 0
  WP8::ScriptingBackend: 2
  WebGL::ScriptingBackend: 1
  WebGL::audioCompressionFormat: 4
  WebGL::exceptionSupport: 1
  WebGL::memorySize: 256
  iOS::Architecture: 2
  iOS::ScriptingBackend: 1
  boolPropertyNames:
  - WebGL::analyzeBuildSize
  - WebGL::dataCaching
  - WebGL::useEmbeddedResources
  WebGL::analyzeBuildSize: 0
  WebGL::dataCaching: 0
  WebGL::useEmbeddedResources: 0
  stringPropertyNames:
  - WebGL::emscriptenArgs
  - WebGL::template
  - additionalIl2CppArgs::additionalIl2CppArgs
  WebGL::emscriptenArgs: 
  WebGL::template: APPLICATION:Default
  additionalIl2CppArgs::additionalIl2CppArgs: 
  firstStreamedSceneWithResources: 0
  cloudProjectId: 
  projectId: 
  projectName: 
  organizationId: 
  cloudEnabled: 0
